Filename,Chills,Tears,Startle
01-05.mp4,0,0,0
06-02.mp4,0,0,0
01-06.mp4,0,0,0
07-02.mp4,0,0,0
01-04.mp4,0,0,0
05-02.mp4,0,0,0
01-01.mp4,0,0,0
02-02.mp4,0,0,0
01-03.mp4,0,0,0
04-02.mp4,2,2,0
01-02.mp4,0,0,0
03-02.mp4,0,0,0
