Filename,Chills,Tears,Startle
01-01.mp4,0,0,0
02-01.mp4,0,0,0
01-02.mp4,0,0,0
03-01.mp4,0,0,0
01-06.mp4,0,0,0
07-01.mp4,0,0,0
01-03.mp4,0,0,0
04-01.mp4,0,1,0
01-05.mp4,0,0,0
06-01.mp4,0,0,0
01-04.mp4,0,0,0
05-01.mp4,0,0,0
